^C:\USERS\RYAN\DESKTOP\SHAPE\SHAPE\DEBUG\CIRCLE.OBJ|C:\USERS\RYAN\DESKTOP\SHAPE\SHAPE\DEBUG\MAIN.OBJ|C:\USERS\RYAN\DESKTOP\SHAPE\SHAPE\DEBUG\SHAPE.OBJ|C:\USERS\RYAN\DESKTOP\SHAPE\SHAPE\DEBUG\TRIANGLE.OBJ
/OUT:"C:\USERS\RYAN\DESKTOP\SHAPE\DEBUG\SHAPE.EXE" /INCREMENTAL /NOLOGO KERNEL32.LIB USER32.LIB GDI32.LIB WINSPOOL.LIB COMDLG32.LIB ADVAPI32.LIB SHELL32.LIB OLE32.LIB OLEAUT32.LIB UUID.LIB ODBC32.LIB ODBCCP32.LIB /MANIFEST /MANIFESTUAC:"level='asInvoker' uiAccess='false'" /manifest:embed /DEBUG:FASTLINK /PDB:"C:\USERS\RYAN\DESKTOP\SHAPE\DEBUG\SHAPE.PDB" /SUBSYSTEM:CONSOLE /TLBID:1 /DYNAMICBASE /NXCOMPAT /IMPLIB:"C:\USERS\RYAN\DESKTOP\SHAPE\DEBUG\SHAPE.LIB" /MACHINE:X86 DEBUG\CIRCLE.OBJ
DEBUG\MAIN.OBJ
DEBUG\SHAPE.OBJ
DEBUG\TRIANGLE.OBJ
^C:\USERS\WHITE\SOURCE\REPOS\C++\SHAPE\SHAPE\DEBUG\CIRCLE.OBJ|C:\USERS\WHITE\SOURCE\REPOS\C++\SHAPE\SHAPE\DEBUG\MAIN.OBJ|C:\USERS\WHITE\SOURCE\REPOS\C++\SHAPE\SHAPE\DEBUG\SHAPE.OBJ|C:\USERS\WHITE\SOURCE\REPOS\C++\SHAPE\SHAPE\DEBUG\TRIANGLE.OBJ
/OUT:"C:\USERS\WHITE\SOURCE\REPOS\C++\SHAPE\DEBUG\SHAPE.EXE" /INCREMENTAL /ILK:"DEBUG\SHAPE.ILK" /NOLOGO KERNEL32.LIB USER32.LIB GDI32.LIB WINSPOOL.LIB COMDLG32.LIB ADVAPI32.LIB SHELL32.LIB OLE32.LIB OLEAUT32.LIB UUID.LIB ODBC32.LIB ODBCCP32.LIB /MANIFEST /MANIFESTUAC:"level='asInvoker' uiAccess='false'" /manifest:embed /DEBUG /PDB:"C:\USERS\WHITE\SOURCE\REPOS\C++\SHAPE\DEBUG\SHAPE.PDB" /SUBSYSTEM:CONSOLE /TLBID:1 /DYNAMICBASE /NXCOMPAT /IMPLIB:"C:\USERS\WHITE\SOURCE\REPOS\C++\SHAPE\DEBUG\SHAPE.LIB" /MACHINE:X86 DEBUG\CIRCLE.OBJ
DEBUG\MAIN.OBJ
DEBUG\SHAPE.OBJ
DEBUG\TRIANGLE.OBJ
